Exploratory Data Analysis in R with the tidyverse
…
Using View() in RStudio opens the dataset in a scrollable spreadsheet format, making it easier to explore variable names and spot early patterns.

Key variables for analysis include popularity, track_genre, and features like danceability, energy, and explicit, which offer a mix of numeric and categorical data.

4. Remove songs listed multiple times in the data

# Remove duplicate songs based on the track_name column
# .keep_all = TRUE keeps the first full row for each unique track_name
spotify <- spotify_by_genre |>
  dplyr::distinct(track_name, .keep_all = TRUE)

# View the resulting cleaned dataset
spotify

# A tibble: 4,311 × 21
   track_id       artists album_name track_name popularity duration_ms explicit danceability energy   key loudness  mode
   <chr>          <chr>   <chr>      <chr>           <dbl>       <dbl> <lgl>           <dbl>  <dbl> <dbl>    <dbl> <dbl>
 1 2wrJq5XKLnmhR… Dan + … 10,000 Ho… 10,000 Ho…         78      167693 FALSE           0.654  0.63     10    -4.64     1
 2 6AHJTA1BN7ePf… Luke B… Country U… Country On          0      236455 FALSE           0.52   0.751     5    -5.06     1
 3 5eUtyONoPyfZY… Thomas… Mientras … Die A Hap…          1      228320 FALSE           0.59   0.389     2    -9.24     1
 4 1e3QZ42GsP8cT… Zach B… New Count… Something…          3      228013 FALSE           0.369  0.192     4   -12.2      0
 5 43WFp6WBAvNgc… Luke B… Tailgate … Country G…          2      225560 FALSE           0.644  0.904     2    -4.53     1
 6 16LAkUOZbmqdH… Thomas… Sad Count… Slow Down…          8      216764 FALSE           0.464  0.755     4    -5.71     1
 7 6rfDtM5aHbsaL… Florid… Sad Count… Stay                2      200426 FALSE           0.493  0.931     1    -2.99     1
 8 24NRxtqD6oySj… Zach B… Country C… Oklahoma …          3      211739 FALSE           0.544  0.573     8    -5.69     1
 9 3opqy7HYeNHQa… Thomas… Tailgate … Put It On…          0      184800 FALSE           0.554  0.757     0    -4.30     1
10 66ERrn57fmkbO… Zach B… rainy day… November …          2      243709 FALSE           0.429  0.197     3    -9.80     1
# ℹ 4,301 more rows
# ℹ 9 more variables: speechiness <dbl>, acousticness <dbl>, instrumentalness <dbl>, liveness <dbl>, valence <dbl>,
#   tempo <dbl>, time_signature <dbl>, track_genre <chr>, popular_or_not <chr>
…
This count reveals how popularity is distributed across different genres.

Grouped summaries are essential for spotting trends, differences, and relationships across categories.

15. Wide to long with tidyr::pivot_longer()

# Reshape selected audio features from wide format to long format
# This creates a 'feature' column for the variable name and a 'value' column for its value
spotify |>
  select(track_name, energy, danceability, acousticness) |>
  tidyr::pivot_longer(cols = c(energy, danceability, acousticness),
                      names_to = "feature",
                      values_to = "value")

# A tibble: 12,933 × 3
   track_name                        feature      value
   <chr>                             <chr>        <dbl>
 1 10,000 Hours (with Justin Bieber) energy       0.63 
 2 10,000 Hours (with Justin Bieber) danceability 0.654
 3 10,000 Hours (with Justin Bieber) acousticness 0.153
 4 Country On                        energy       0.751
 5 Country On                        danceability 0.52 
 6 Country On                        acousticness 0.171
 7 Die A Happy Man                   energy       0.389
 8 Die A Happy Man                   danceability 0.59 
 9 Die A Happy Man                   acousticness 0.411
10 Something in the Orange           energy       0.192
# ℹ 12,923 more rows
…
# Create a vector of new column names based on the maximum number of artists found
artist_cols <- paste0("artist_", seq_len(max_artists))

# Use separate() to split the 'artists' column into multiple artist columns
# Use fill = "right" to handle cases with fewer than max_artists
# Keep the original 'artists' column for reference
split_by_artists <- spotify |>
  filter(stringr::str_detect(artists, ";")) |>
  tidyr::separate(artists, into = artist_cols, sep = ";", fill = "right", remove = FALSE) |>
  select(track_name, artists, track_genre, all_of(artist_cols))
split_by_artists

# A tibble: 1,704 × 34
   track_name       artists track_genre artist_1 artist_2 artist_3 artist_4 artist_5 artist_6 artist_7 artist_8 artist_9
   <chr>            <chr>   <chr>       <chr>    <chr>    <chr>    <chr>    <chr>    <chr>    <chr>    <chr>    <chr>   
 1 10,000 Hours (w… Dan + … country     Dan + S… Justin … <NA>     <NA>     <NA>     <NA>     <NA>     <NA>     <NA>    
 2 Put It On Ice    Thomas… country     Thomas … HARDY    <NA>     <NA>     <NA>     <NA>     <NA>     <NA>     <NA>    
 3 Playing With Fi… Thomas… country     Thomas … Daniell… <NA>     <NA>     <NA>     <NA>     <NA>     <NA>     <NA>    
 4 10,000 Hours     Dan + … country     Dan + S… Justin … <NA>     <NA>     <NA>     <NA>     <NA>     <NA>     <NA>    
 5 Buy Dirt         Jordan… country     Jordan … Luke Br… <NA>     <NA>     <NA>     <NA>     <NA>     <NA>     <NA>    
 6 Tequila - Mushr… Dan + … country     Dan + S… Mushroo… <NA>     <NA>     <NA>     <NA>     <NA>     <NA>     <NA>    
 7 Silent Night     Cody J… country     Cody Jo… Clara J… Brandi … Cori Jo… <NA>     <NA>     <NA>     <NA>     <NA>    
 8 Little Drummer … Carrie… country     Carrie … Isaiah … <NA>     <NA>     <NA>     <NA>     <NA>     <NA>     <NA>    
 9 Hallelujah       Carrie… country     Carrie … John Le… <NA>     <NA>     <NA>     <NA>     <NA>     <NA>     <NA>    
10 Happy Anywhere   Blake … country     Blake S… Gwen St… <NA>     <NA>     <NA>     <NA>     <NA>     <NA>     <NA>    
# ℹ 1,694 more rows
# ℹ 22 more variables: artist_10 <chr>, artist_11 <chr>, artist_12 <chr>, artist_13 <chr>, artist_14 <chr>,
#   artist_15 <chr>, artist_16 <chr>, artist_17 <chr>, artist_18 <chr>, artist_19 <chr>, artist_20 <chr>,
#   artist_21 <chr>, artist_22 <chr>, artist_23 <chr>, artist_24 <chr>, artist_25 <chr>, artist_26 <chr>,
#   artist_27 <chr>, artist_28 <chr>, artist_29 <chr>, artist_30 <chr>, artist_31 <chr>
…
Session 3: Managing Dates, Strings, and Categories

21. Working with strings using stringr

library(stringr)

# Create a new column that counts the number of characters in each track name
# Then display the track names sorted by length in descending order
spotify |>
  mutate(name_length = str_length(track_name)) |>
  select(track_name, name_length) |>
  arrange(desc(name_length)) 

# A tibble: 4,311 × 2
   track_name                                                                                  name_length
   <chr>                                                                                             <int>
 1 "A Thousand Years (feat. Steve Kazee) - Pt. 2; The Twilight Saga: Breaking Dawn Soundtrack"          89
 2 "Where Are You Christmas - From \"Dr. Seuss' How The Grinch Stole Christmas\" Soundtrack"            85
 3 "I Put A Spell On You (Fifty Shades of Grey) - From \"Fifty Shades Of Grey\" Soundtrack"             84
 4 "Last One Standing (feat. Polo G, Mozzy & Eminem) - From Venom: Let There Be Carnage"                83
 5 "Double Talkin' Jive - Live In Las Vegas, Thomas & Mack Center - January 25, 1992"                   80
 6 "Rockin' Around The Christmas Tree - From The Kacey Musgraves Christmas Show"                        75
 7 "Good Things Fall Apart vs. Sad Songs (With Said The Sky feat. Annika Wells)"                        75
 8 "I'll Be Home For Christmas - From The Kacey Musgraves Christmas Show"                               68
 9 "Good Things Fall Apart (with Jon Bellion) [Tiësto's Big Room Remix]"                                67
10 "Sympathy For The Devil - 50th Anniversary Edition / Remastered 2018"                                67
# ℹ 4,301 more rows

# Detect songs where the title includes the word "love" (case-insensitive)
# Use str_to_lower to ensure consistent matching
(
  love_songs <- spotify |>
    filter(str_detect(str_to_lower(track_name), "love")) |>
    select(track_genre, track_name)
)

# A tibble: 147 × 2
   track_genre track_name                       
   <chr>       <chr>                            
 1 country     I Love My Country                
 2 country     Fall in Love                     
 3 country     Never Been in Love               
 4 country     Don't Fall In Love With A Dreamer
 5 country     Like We Never Loved at All       
 6 country     Let's Make Love                  
 7 country     Drunk on Your Love               
 8 country     I Love You, I Love You           
 9 country     You Should Be Loved              
10 country     Love Will Keep Us Alive          
# ℹ 137 more rows
…
This lets us explore themes in the data—like how often love appears in song titles.

We add a flag (love = 1) to count and summarize how many love-themed songs exist in each genre.

Calculating percentages gives insight into which genres most frequently use “love” in their track titles relative to the full dataset.

22. Extracting and replacing substrings

# Remove all parentheses from track names
spotify |>
  mutate(track_name_clean = str_remove_all(track_name, "\\(.*?\\)")) |>
  select(track_name, track_name_clean)

# A tibble: 4,311 × 2
   track_name                        track_name_clean         
   <chr>                             <chr>                    
 1 10,000 Hours (with Justin Bieber) "10,000 Hours "          
 2 Country On                        "Country On"             
 3 Die A Happy Man                   "Die A Happy Man"        
 4 Something in the Orange           "Something in the Orange"
 5 Country Girl (Shake It For Me)    "Country Girl "          
 6 Slow Down Summer                  "Slow Down Summer"       
 7 Stay                              "Stay"                   
 8 Oklahoma Smokeshow                "Oklahoma Smokeshow"     
 9 Put It On Ice                     "Put It On Ice"          
10 November Air                      "November Air"           
# ℹ 4,301 more rows

# Extract featured artist from parentheses
spotify |>
  mutate(featuring = str_extract(
    track_name, 
    "(?i)(?<=\\()(with|feat\\.)[^)]*(?=\\))")) |>
  select(track_name, featuring) |>
  mutate(featuring = str_replace_all(featuring, "with |feat. ", "")) |> 
  filter(!is.na(featuring))

# A tibble: 261 × 2
   track_name                                                  featuring            
   <chr>                                                       <chr>                
 1 10,000 Hours (with Justin Bieber)                           Justin Bieber        
 2 Whiskey Lullaby (feat. Alison Krauss)                       Alison Krauss        
 3 10,000 Hours (with Justin Bieber) - Piano                   Justin Bieber        
 4 I Hope (feat. Charlie Puth)                                 Charlie Puth         
 5 Dance with the Devil (feat. Katie Noel & Chucky V)          Katie Noel & Chucky V
 6 On Me (feat. Ava Max)                                       Ava Max              
 7 Take Me Home (with Kane Brown)                              Kane Brown           
 8 What Ifs (feat. Lauren Alaina)                              Lauren Alaina        
 9 Trying to Reason With Hurricane Season (with Jimmy Buffett) Jimmy Buffett        
10 Sugar (feat. Francesco Yates)                               Francesco Yates      
# ℹ 251 more rows
…
The use of lookarounds (?<=\\() and (?=\\)) ensures we extract the content inside the parentheses without including the parentheses themselves.

After extracting, we strip out “with” or “feat.” using str_replace_all() to leave just the artist names, which can be helpful for analyzing collaborations.

23. Wrangling artists into long format

# Use separate_rows() to split multiple artists into individual rows
# This turns collaborations into separate entries for each artist
(
  artists_long <- spotify |>
    tidyr::separate_rows(artists, sep = ";")
)

# A tibble: 6,642 × 21
   track_id       artists album_name track_name popularity duration_ms explicit danceability energy   key loudness  mode
   <chr>          <chr>   <chr>      <chr>           <dbl>       <dbl> <lgl>           <dbl>  <dbl> <dbl>    <dbl> <dbl>
 1 2wrJq5XKLnmhR… Dan + … 10,000 Ho… 10,000 Ho…         78      167693 FALSE           0.654  0.63     10    -4.64     1
 2 2wrJq5XKLnmhR… Justin… 10,000 Ho… 10,000 Ho…         78      167693 FALSE           0.654  0.63     10    -4.64     1
 3 6AHJTA1BN7ePf… Luke B… Country U… Country On          0      236455 FALSE           0.52   0.751     5    -5.06     1
 4 5eUtyONoPyfZY… Thomas… Mientras … Die A Hap…          1      228320 FALSE           0.59   0.389     2    -9.24     1
 5 1e3QZ42GsP8cT… Zach B… New Count… Something…          3      228013 FALSE           0.369  0.192     4   -12.2      0
 6 43WFp6WBAvNgc… Luke B… Tailgate … Country G…          2      225560 FALSE           0.644  0.904     2    -4.53     1
 7 16LAkUOZbmqdH… Thomas… Sad Count… Slow Down…          8      216764 FALSE           0.464  0.755     4    -5.71     1
 8 6rfDtM5aHbsaL… Florid… Sad Count… Stay                2      200426 FALSE           0.493  0.931     1    -2.99     1
 9 24NRxtqD6oySj… Zach B… Country C… Oklahoma …          3      211739 FALSE           0.544  0.573     8    -5.69     1
10 3opqy7HYeNHQa… Thomas… Tailgate … Put It On…          0      184800 FALSE           0.554  0.757     0    -4.30     1
# ℹ 6,632 more rows
# ℹ 9 more variables: speechiness <dbl>, acousticness <dbl>, instrumentalness <dbl>, liveness <dbl>, valence <dbl>,
#   tempo <dbl>, time_signature <dbl>, track_genre <chr>, popular_or_not <chr>

# Count how many times each artist appears across all tracks
# Artists involved in collaborations will be counted multiple times
artists_long |> 
  count(artists, sort = TRUE)

# A tibble: 2,688 × 2
   artists                   n
   <chr>                 <int>
 1 ILLENIUM                 91
 2 Anirudh Ravichander      79
 3 Sidhu Moose Wala         63
 4 Linkin Park              59
 5 SLANDER                  35
 6 Seven Lions              34
 7 Tritonal                 29
 8 AP Dhillon               28
 9 Red Hot Chili Peppers    28
10 Porter Robinson          27
# ℹ 2,678 more rows
…
  # Keep only distinct artist–genre pairs
  distinct(artists, track_genre) |>
  
  # Group by artist and filter for those appearing in more than one genre
  group_by(artists) |>
  filter(n_distinct(track_genre) > 1) |>
  
  # Sort alphabetically and display artist–genre combinations
  arrange(artists) |>
  select(artists, track_genre)

# A tibble: 115 × 2
# Groups:   artists [57]
   artists           track_genre
   <chr>             <chr>      
 1 Alok              dubstep    
 2 Alok              rock       
 3 Asking Alexandria dubstep    
 4 Asking Alexandria metal      
 5 Atreyu            dubstep    
 6 Atreyu            metal      
 7 BANNERS           dubstep    
 8 BANNERS           rock       
 9 Billy Ray Cyrus   country    
10 Billy Ray Cyrus   hip-hop    
# ℹ 105 more rows
…
# Load the azflights24 and lubridate packages for flight data and date manipulation
library(azflights24)
library(lubridate)

Attaching package: 'lubridate'

The following objects are masked from 'package:base':

    date, intersect, setdiff, union

# Preview a random sample of flight records
flights |> 
  slice_sample(n = 30)

# A tibble: 30 × 19
    year month   day dep_time sched_dep_time dep_delay arr_time sched_arr_time arr_delay carrier flight tailnum origin
   <int> <int> <int>    <int>          <int>     <dbl>    <int>          <int>     <dbl> <chr>    <int> <chr>   <chr> 
 1  2024     5     7     1544           1552        -8     2140           2217       -37 AA         644 N954NN  PHX   
 2  2024    11    20      732            735        -3      836            840        -4 WN         141 N8759Q  PHX   
 3  2024    10     7     1330           1335        -5     1649           1651        -2 OO        1316 N732SK  PHX   
 4  2024     2     8     1710           1712        -2     2331           2359       -28 AA         119 N443AA  PHX   
 5  2024     5     3     1731           1725         6     1849           1855        -6 WN         878 N436WN  PHX   
 6  2024    11    27      859            900        -1     1006           1000         6 WN         347 N930WN  PHX   
 7  2024    11    30     2255           2300        -5     2353           2353         0 OO        1754 N774SK  PHX   
 8  2024     8    30     1719           1715         4     2122           2120         2 WN         725 N258WN  PHX   
 9  2024     3     7      953            959        -6     1051           1106       -15 OO        1046 N724EV  PHX   
10  2024     7    10      839            843        -4     1105           1120       -15 OO        1085 N521SY  PHX   
# ℹ 20 more rows
# ℹ 6 more variables: dest <chr>, air_time <dbl>, distance <dbl>, hour <dbl>, minute <dbl>, time_hour <dttm>

# Create a proper date column by combining year, month, and day
(
  flights_fixed <- flights |>
    mutate(flight_date = make_date(year, month, day)) |>
    select(flight, origin, dest, carrier, year, month, day, flight_date)
)

# A tibble: 221,144 × 8
   flight origin dest  carrier  year month   day flight_date
    <int> <chr>  <chr> <chr>   <int> <int> <int> <date>     
 1   1024 PHX    CLT   AA       2024     1     1 2024-01-01 
 2    643 PHX    EWR   UA       2024     1     1 2024-01-01 
 3    126 PHX    DCA   AA       2024     1     1 2024-01-01 
 4   1155 PHX    DFW   F9       2024     1     1 2024-01-01 
 5   1260 PHX    EWR   NK       2024     1     1 2024-01-01 
 6    376 PHX    MCO   F9       2024     1     1 2024-01-01 
 7    152 PHX    ORD   UA       2024     1     1 2024-01-01 
 8   1379 PHX    ATL   F9       2024     1     1 2024-01-01 
 9     99 PHX    DEN   WN       2024     1     1 2024-01-01 
10    410 PHX    SAT   WN       2024     1     1 2024-01-01 
# ℹ 221,134 more rows
…
