Exploratory Data Analysis in R with the tidyverse
…
# Apply the extraction function to each track name using map_chr
# Create a new column for the extracted featured artist string
# Filter to show only tracks that actually contain a featured artist
# Then display a random sample of 30 such tracks
spotify |>
  mutate(feature_raw = map_chr(track_name, extract_feature)) |>
  select(track_name, feature_raw, track_genre) |>
  filter(!is.na(feature_raw)) |> 
  slice_sample(n = 30)

# A tibble: 30 × 3
   track_name                                       feature_raw                 track_genre
   <chr>                                            <chr>                       <chr>      
 1 First Time (feat. iann dior) - Sam Feldt Remix   feat. iann dior             dubstep    
 2 IDGAF (feat. Morrisson)                          feat. Morrisson             hip-hop    
 3 Imagining (feat. Gabrielle Aplin)                feat. Gabrielle Aplin       deep-house 
 4 Fair Trade (with Travis Scott)                   with Travis Scott           hip-hop    
 5 God Damnit (with Call Me Karizma)                with Call Me Karizma        dubstep    
 6 Forget About It (feat. Sunny Malton)             feat. Sunny Malton          hip-hop    
 7 Never Gonna Forget (with Diplo feat. Elderbrook) with Diplo feat. Elderbrook deep-house 
 8 Liar (with OST)                                  with OST                    dubstep    
 9 10,000 Hours (with Justin Bieber) - Piano        with Justin Bieber          country    
10 Hurts Sometimes (with Jonathan Mendelsohn)       with Jonathan Mendelsohn    dubstep    
# ℹ 20 more rows
…
# Define a function that returns TRUE if a title is all uppercase
# It allows spaces, digits, and punctuation but must contain at least one A–Z letter
is_all_caps <- function(x) {
  str_detect(x, "^[A-Z\\s0-9[:punct:]]+$") & str_detect(x, "[A-Z]")
}

# Apply the function to each track title to flag shouting titles
# Add a new logical column and sort the data so TRUE values appear first
(
  shout_labeled <- spotify |>
    mutate(is_shouting = map_lgl(track_name, is_all_caps), .after = track_name) |>
    arrange(desc(is_shouting))
)

# A tibble: 4,311 × 22
   track_id artists album_name track_name is_shouting popularity duration_ms explicit danceability energy   key loudness
   <chr>    <chr>   <chr>      <chr>      <lgl>            <dbl>       <dbl> <lgl>           <dbl>  <dbl> <dbl>    <dbl>
 1 1gH8Qig… Tim Mc… Sad Count… 7500 OBO   TRUE                 3      221400 FALSE           0.528  0.718     7    -6.95
 2 1x41485… Koe We… Harold Sa… L.T.W.Y.H… TRUE                48      209849 FALSE           0.439  0.528     9    -7.12
 3 7yBcGJF… Tyler … Suffer in… C.O.U.N.T… TRUE                45      201026 FALSE           0.459  0.89      9    -4.45
 4 0BCy325… Florid… Dig Your … H.O.L.Y.   TRUE                71      194186 FALSE           0.523  0.666     7    -4.08
 5 2S8UMuL… Niko M… GOOD TIME  GOOD TIME  TRUE                70      214720 FALSE           0.802  0.59      5    -7.19
 6 3rLEBpW… Kelsea… SUBJECT T… MUSCLE ME… TRUE                66      211843 FALSE           0.596  0.786     8    -4.78
 7 3bWAqKD… Robin … OK         OK         TRUE                63      189306 FALSE           0.653  0.81      7    -6.03
 8 6JjSoJ2… Chris … MAMI       MAMI       TRUE                66      247896 TRUE            0.758  0.944     3    -4.90
 9 0FMLbet… James … B2B        B2B        TRUE                54      160000 FALSE           0.799  0.956     0    -6.41
10 3VQWkf0… ESSEL   BUBBLEGUM  BUBBLEGUM  TRUE                57      148538 FALSE           0.838  0.803     6    -5.58
# ℹ 4,301 more rows
# ℹ 10 more variables: mode <dbl>, speechiness <dbl>, acousticness <dbl>, instrumentalness <dbl>, liveness <dbl>,
#   valence <dbl>, tempo <dbl>, time_signature <dbl>, track_genre <chr>, popular_or_not <chr>
…
# Combine all genre-specific data frames into one using reduce() and bind_rows()
top_genre_combined <- reduce(top_genre_dfs, bind_rows)

# Count how often each artist appears in the top 3 genres
top_genre_combined |> count(artists, sort = TRUE)

# A tibble: 1,785 × 2
   artists                   n
   <chr>                 <int>
 1 ILLENIUM                 91
 2 Linkin Park              59
 3 SLANDER                  35
 4 Seven Lions              34
 5 Tritonal                 29
 6 Porter Robinson          27
 7 Red Hot Chili Peppers    27
 8 Krewella                 25
 9 Lucas Estrada            24
10 Said The Sky             24
# ℹ 1,775 more rows
…
Rows: 2557 Columns: 29

── Column specification ────────────────────────────────────────────────────────────────────────────────────────────────
Delimiter: ","
chr (17): spec_name, acc_genus, acc_species, palm_tribe, palm_subfamily, climbing, acaulescent, erect, stem_solitary...
dbl (12): Max Stem Height (m), max_stem_dia_cm, # of Leaves, max__blade__length_m!!!, max__rachis__length_m, max__pe...

ℹ Use `spec()` to retrieve the full column specification for this data.
ℹ Specify the column types or set `show_col_types = FALSE` to quiet this message.

# Display the dataset to get a quick sense of the structure and contents
palmtrees_raw

# A tibble: 2,557 × 29
   spec_name         acc_genus acc_species palm_tribe palm_subfamily climbing acaulescent erect stem_solitary stem_armed
   <chr>             <chr>     <chr>       <chr>      <chr>          <chr>    <chr>       <chr> <chr>         <chr>     
 1 Acanthophoenix c… Acanthop… crinita     Areceae    Arecoideae     climbing acaulescent non-… non-solitary  non-armed 
 2 Acanthophoenix r… Acanthop… rousselii   Areceae    Arecoideae     climbing acaulescent non-… non-solitary  non-armed 
 3 Acanthophoenix r… Acanthop… rubra       Areceae    Arecoideae     climbing acaulescent non-… non-solitary  non-armed 
 4 Acoelorrhaphe wr… Acoelorr… wrightii    Trachycar… Coryphoideae   climbing acaulescent non-… solitary      armed     
 5 Acrocomia aculea… Acrocomia aculeata    Cocoseae   Arecoideae     climbing acaulescent non-… non-solitary  non-armed 
 6 Acrocomia crispa  Acrocomia crispa      Cocoseae   Arecoideae     climbing acaulescent non-… non-solitary  non-armed 
 7 Acrocomia emensis Acrocomia emensis     Cocoseae   Arecoideae     climbing non-acaule… erect non-solitary  non-armed 
 8 Acrocomia glauce… Acrocomia glaucescens Cocoseae   Arecoideae     climbing acaulescent non-… non-solitary  non-armed 
 9 Acrocomia hassle… Acrocomia hassleri    Cocoseae   Arecoideae     climbing non-acaule… erect non-solitary  non-armed 
10 Acrocomia intume… Acrocomia intumescens Cocoseae   Arecoideae     climbing acaulescent non-… non-solitary  non-armed 
# ℹ 2,547 more rows
# ℹ 19 more variables: leaves_armed <chr>, `Max Stem Height (m)` <dbl>, max_stem_dia_cm <dbl>,
#   understorey_canopy <chr>, `# of Leaves` <dbl>, `max__blade__length_m!!!` <dbl>, max__rachis__length_m <dbl>,
#   max__petiole_length_m <dbl>, average_fruit_length_cm <dbl>, min_fruit_length_cm <dbl>, max_fruit_length_cm <dbl>,
#   `Average-Fruit Width (cm)` <dbl>, min_fruit_width_cm <dbl>, max_fruit_width_cm <dbl>, fruit_size_categorical <chr>,
#   `¿Fruit Shape?` <chr>, `Fruit Color Description (raw)` <chr>, `main fruit COLORS!` <chr>, conspicuousness <chr>
…
janitor::clean_names() standardizes column names by converting them to lowercase and replacing spaces/special characters with underscores.

glimpse() helps confirm the cleaning worked and shows the structure of the cleaned dataset, including column types.

This cleanup step improves consistency and reduces potential errors when referencing columns in code.

53. Check for missing data

# Summarize how many missing values are in each column
palms |> 
  summarize(across(everything(), ~ sum(is.na(.)))) |>
  pivot_longer(cols = everything(), names_to = "column", values_to = "n_missing") |>
  arrange(desc(n_missing))

# A tibble: 29 × 2
   column               n_missing
   <chr>                    <int>
 1 min_fruit_length_cm       1651
 2 max_fruit_length_cm       1641
 3 min_fruit_width_cm        1563
 4 max_fruit_width_cm        1555
 5 max_petiole_length_m      1347
 6 number_of_leaves          1251
 7 max_rachis_length_m       1026
 8 fruit_shape                765
 9 main_fruit_colors          758
10 conspicuousness            758
# ℹ 19 more rows
…
# Use moderndive's tidy_summary() for a more descriptive summary of the same traits
palms |> 
  select(climbing, erect, stem_armed, fruit_size_categorical, 
         fruit_shape, conspicuousness) |>
  tidy_summary()

# A tibble: 23 × 11
   group            n column                 type        min    Q1  mean median    Q3   max    sd
   <chr>        <int> <chr>                  <chr>     <dbl> <dbl> <dbl>  <dbl> <dbl> <dbl> <dbl>
 1 both            16 climbing               character    NA    NA    NA     NA    NA    NA    NA
 2 climbing      2011 climbing               character    NA    NA    NA     NA    NA    NA    NA
 3 non-climbing   530 climbing               character    NA    NA    NA     NA    NA    NA    NA
 4 both            48 erect                  character    NA    NA    NA     NA    NA    NA    NA
 5 erect          738 erect                  character    NA    NA    NA     NA    NA    NA    NA
 6 non-erect     1771 erect                  character    NA    NA    NA     NA    NA    NA    NA
 7 armed         2297 stem_armed             character    NA    NA    NA     NA    NA    NA    NA
 8 non-armed      205 stem_armed             character    NA    NA    NA     NA    NA    NA    NA
 9 <NA>            55 stem_armed             character    NA    NA    NA     NA    NA    NA    NA
10 large          251 fruit_size_categorical character    NA    NA    NA     NA    NA    NA    NA
# ℹ 13 more rows
…
We use map_df() to compute the mean and standard deviation for each numeric column, creating a tidy summary of the data.

tidy_summary() from the moderndive package provides a more comprehensive summary, including missing values, and is useful for quick reporting.

Both methods help identify variables with high variability or missing data, preparing the dataset for further analysis or modeling.

62. Explore common color description phrases

# Count how many species use each raw fruit color description
palms |> 
  filter(!is.na(fruit_color_description_raw)) |> 
  count(fruit_color_description_raw, sort = TRUE)

# A tibble: 769 × 2
   fruit_color_description_raw     n
   <chr>                       <int>
 1 black                         160
 2 red                           147
 3 brown                          72
 4 purple-black                   67
 5 orange                         51
 6 yellowish                      40
 7 orange-red                     36
 8 yellow                         33
 9 green                          31
10 brown to black                 29
# ℹ 759 more rows
…
# Identify species that are non-armed and have missing conspicuousness data
rare_traits <- palms |> 
  filter(stem_armed == "non-armed", 
         is.na(conspicuousness)) |>
  select(spec_name, palm_subfamily, palm_tribe, climbing, stem_armed, 
         conspicuousness)
rare_traits

# A tibble: 32 × 6
   spec_name                 palm_subfamily palm_tribe climbing stem_armed conspicuousness
   <chr>                     <chr>          <chr>      <chr>    <chr>      <chr>          
 1 Acrocomia emensis         Arecoideae     Cocoseae   climbing non-armed  <NA>           
 2 Acrocomia glaucescens     Arecoideae     Cocoseae   climbing non-armed  <NA>           
 3 Aiphanes graminifolia     Arecoideae     Cocoseae   climbing non-armed  <NA>           
 4 Aiphanes leiostachys      Arecoideae     Cocoseae   climbing non-armed  <NA>           
 5 Aiphanes linearis         Arecoideae     Cocoseae   climbing non-armed  <NA>           
 6 Astrocaryum carnosum      Arecoideae     Cocoseae   climbing non-armed  <NA>           
 7 Astrocaryum mexicanum     Arecoideae     Cocoseae   climbing non-armed  <NA>           
 8 Astrocaryum minus         Arecoideae     Cocoseae   climbing non-armed  <NA>           
 9 Astrocaryum perangustatum Arecoideae     Cocoseae   climbing non-armed  <NA>           
10 Astrocaryum triandrum     Arecoideae     Cocoseae   climbing non-armed  <NA>           
# ℹ 22 more rows
…
